{
  "type": "FeatureCollection",
  "name": "merged",
  "crs": {
    "type": "name",
    "properties": {"name": "urn:ogc:def:crs:OGC:1.3:CRS84"}
  },
  "features": [
    { "type": "Feature", "properties": { "line_key": "WSM_PH_GH", "Name": "Branch Monster" }, "geometry": { "type": "LineString", "coordinates": [ [ 4.1807606, 52.0216675 ], [ 4.1798326, 52.0215289 ], [ 4.1775902, 52.0208521 ], [ 4.1751378, 52.0203014 ], [ 4.1729491, 52.0200769 ], [ 4.1687005, 52.0203014 ], [ 4.16678, 52.0206183 ] ] } },
    {
      "type": "Feature",
      "properties": {
        "line_key": "WSM_PH_GH",
        "Name": "Poeldijk - Hoek van Holland"
      },
      "geometry": {
        "type": "LineString",
        "coordinates": [
          [4.2126464, 52.0234314],
          [4.2122872, 52.0227103],
          [4.2119117, 52.022532],
          [4.2088551, 52.022599],
          [4.2070205, 52.0226782],
          [4.2037589, 52.0230347],
          [4.1990597, 52.023444],
          [4.1969244, 52.0232722],
          [4.1947143, 52.0229091],
          [4.1924712, 52.0228836],
          [4.1906687, 52.0225931],
          [4.1847357, 52.0220979],
          [4.1822459, 52.0217585],
          [4.1799499, 52.0216133],
          [4.1773133, 52.0217867],
          [4.1745185, 52.0219286],
          [4.1723405, 52.0220013],
          [4.1722727, 52.0221522],
          [4.1718597, 52.0223998],
          [4.1714251, 52.0224361],
          [4.1707868, 52.0219739],
          [4.1696978, 52.0209836],
          [4.1690594, 52.0205908],
          [4.1683191, 52.0204752],
          [4.1644496, 52.0208379],
          [4.1624111, 52.0203625],
          [4.1583127, 52.0183422],
          [4.1546762, 52.0165305],
          [4.154054, 52.01589],
          [4.1536141, 52.0147609],
          [4.1533459, 52.0137704],
          [4.15326, 52.0128459],
          [4.1534528, 52.0122954],
          [4.1545257, 52.0109086],
          [4.1560062, 52.0091388],
          [4.1575727, 52.0067085]
        ]
      }
    }
  ]
}