{
    "type": "FeatureCollection",
    "name": "merged",
    "crs": { "type": "name", "properties": { "name": "urn:ogc:def:crs:OGC:1.3:CRS84" } },
    "features": [
    { "type": "Feature", "properties": { "line_key": "NZH_LS_LV", "Name": "Voorburg-Leidschendam", "description": "De NZH-tramlijn had op het grootste deel van zijn traject door Voorburg een vrije baan in de middenberm of langs de zijkant van de weg." }, "geometry": { "type": "LineString", "coordinates": [[ 4.381421, 52.077614 ], [ 4.381828, 52.077834 ], [ 4.38208, 52.077973 ], [ 4.382547, 52.078144 ], [ 4.383196, 52.078359 ], [ 4.38384, 52.078599 ], [ 4.384269, 52.078781 ], [ 4.385959, 52.079519 ] ] } },
    { "type": "Feature", "properties": { "line_key": "NZH_LS_LV", "Name": "Veurseweg - Voorschoten (tot 1961)", "description": "Na de opheffing van de Blauwe Tram is de Veurseweg verbreed met gebruikmaking van de voormalige vrije dubbelsporige baan van de tramlijn." }, "geometry": { "type": "LineString", "coordinates": [ [ 4.410222, 52.093423 ], [ 4.411563, 52.09422 ], [ 4.412105, 52.094599 ], [ 4.412819, 52.09511 ], [ 4.41461, 52.096465 ], [ 4.415243, 52.096999 ], [ 4.416053, 52.097882 ], [ 4.416311, 52.09833 ], [ 4.41656, 52.098851 ], [ 4.41689, 52.09979 ], [ 4.417201, 52.100594 ], [ 4.417786, 52.101592 ], [ 4.418237, 52.10211 ], [ 4.418832, 52.102848 ], [ 4.419288, 52.103322 ], [ 4.419787, 52.103797 ], [ 4.420415, 52.104311 ], [ 4.4213, 52.10498 ], [ 4.422013, 52.105451 ], [ 4.422866, 52.105929 ], [ 4.424003, 52.106508 ], [ 4.425066, 52.107098 ], [ 4.426122, 52.107823 ], [ 4.426895, 52.108423 ], [ 4.427978, 52.109484 ], [ 4.429641, 52.111154 ], [ 4.430494, 52.111968 ], [ 4.431401, 52.112778 ], [ 4.432495, 52.11348 ], [ 4.432924, 52.113822 ], [ 4.433885, 52.114692 ], [ 4.43441, 52.115272 ], [ 4.434931, 52.115861 ], [ 4.435923, 52.116869 ], [ 4.43646, 52.11735 ], [ 4.437565, 52.118312 ], [ 4.438128, 52.118747 ], [ 4.439072, 52.119534 ], [ 4.439732, 52.120068 ], [ 4.440172, 52.120417 ], [ 4.442114, 52.122103 ], [ 4.442731, 52.12262 ], [ 4.44338, 52.123157 ], [ 4.444072, 52.123862 ], [ 4.444361, 52.124277 ], [ 4.444479, 52.124481 ], [ 4.44471, 52.124567 ], [ 4.445016, 52.124564 ], [ 4.445381, 52.124636 ], [ 4.445799, 52.124883 ], [ 4.446234, 52.125203 ], [ 4.44685, 52.125641 ], [ 4.447408, 52.126049 ], [ 4.448352, 52.126773 ], [ 4.44868, 52.126889 ], [ 4.449077, 52.127093 ], [ 4.449801, 52.127534 ], [ 4.450981, 52.128203 ], [ 4.451855, 52.128667 ], [ 4.452542, 52.129003 ] ] } },
    { "type": "Feature", "properties": { "line_key": "NZH_LS_LV", "Name": "Leidschendam-Voorschoten (tot 1961)", "description": "In Leidschendam en Voorschoten is het vroegere tracé van de NZH-tramlijn nog goed te herkennen. Het verleden wordt in ere gehouden door de straatnaam: Oude Trambaan." }, "geometry": { "type": "LineString", "coordinates": [ [ 4.385986, 52.079532 ], [ 4.386463, 52.07971 ], [ 4.38722, 52.079951 ], [ 4.388008, 52.080208 ], [ 4.388781, 52.080465 ], [ 4.389526, 52.080693 ], [ 4.390336, 52.08096 ], [ 4.390942, 52.081158 ], [ 4.391506, 52.081336 ], [ 4.392171, 52.081622 ], [ 4.392825, 52.081936 ], [ 4.393303, 52.08218 ], [ 4.393689, 52.08244 ], [ 4.393995, 52.082677 ], [ 4.394266, 52.082887 ], [ 4.395105, 52.083546 ], [ 4.396065, 52.084286 ], [ 4.396889, 52.08484 ], [ 4.397694, 52.085418 ], [ 4.398222, 52.085811 ], [ 4.398675, 52.086152 ], [ 4.39904, 52.086392 ], [ 4.399526, 52.086702 ], [ 4.399931, 52.086976 ], [ 4.400244, 52.087175 ], [ 4.400958, 52.087566 ], [ 4.40129, 52.087767 ], [ 4.402178, 52.088336 ], [ 4.402774, 52.088739 ], [ 4.403745, 52.089344 ], [ 4.404423, 52.0897 ], [ 4.40562, 52.090292 ], [ 4.406038, 52.090475 ], [ 4.406569, 52.090755 ], [ 4.406939, 52.090994 ], [ 4.407325, 52.091254 ], [ 4.407677, 52.091485 ], [ 4.408495, 52.092106 ], [ 4.40956, 52.09293 ], [ 4.410201, 52.093406 ] ] } },
    { "type": "Feature", "properties": { "line_key": "NZH_LS_LV", "Name": "Voorschoten - Hooghkamerbrug", "description": "Een lang, vrijwel recht traject op vrije baan van de NZH-lijn." }, "geometry": { "type": "LineString", "coordinates": [ [ 4.452564, 52.129019 ], [ 4.453416, 52.129457 ], [ 4.453974, 52.129866 ], [ 4.454602, 52.130271 ], [ 4.455256, 52.130653 ], [ 4.455755, 52.130939 ], [ 4.456437, 52.131213 ], [ 4.457343, 52.131562 ], [ 4.45818, 52.131871 ], [ 4.459054, 52.13222 ], [ 4.45987, 52.132546 ], [ 4.461275, 52.133175 ], [ 4.461994, 52.133462 ], [ 4.462214, 52.133564 ], [ 4.462944, 52.133837 ], [ 4.463866, 52.134153 ], [ 4.465835, 52.134851 ], [ 4.46863, 52.135832 ], [ 4.470073, 52.136353 ], [ 4.472884, 52.137354 ], [ 4.47481, 52.138042 ], [ 4.477873, 52.139135 ] ] } },
    { "type": "Feature", "properties": { "line_key": "NZH_LS_LV", "Name": "Lammebrug - Leiden (tot 1961)", "description": "Temidden van de bebouwing aan de zuidkant van Leiden is het verloop van de NZH-lijn goed terug te vinden. Door de smalle straten van de stad loopt de lijn uiteindelijk naar het stationsplein." }, "geometry": { "type": "LineString", "coordinates": [ [ 4.47798, 52.139178 ], [ 4.481381, 52.140258 ], [ 4.482658, 52.140791 ], [ 4.484138, 52.141449 ], [ 4.484643, 52.141732 ], [ 4.48548, 52.141772 ], [ 4.48608, 52.141904 ], [ 4.486789, 52.142239 ], [ 4.487625, 52.142911 ], [ 4.488205, 52.143444 ], [ 4.488484, 52.143741 ], [ 4.491026, 52.146552 ], [ 4.493097, 52.148711 ], [ 4.493837, 52.149462 ], [ 4.494234, 52.150002 ], [ 4.494513, 52.150607 ], [ 4.494567, 52.151016 ], [ 4.494513, 52.151542 ], [ 4.494385, 52.151931 ], [ 4.49417, 52.152391 ], [ 4.493848, 52.153359 ], [ 4.493794, 52.153708 ], [ 4.493741, 52.154399 ], [ 4.493591, 52.155024 ], [ 4.493451, 52.155597 ], [ 4.493322, 52.156005 ], [ 4.493183, 52.156209 ], [ 4.492947, 52.156413 ], [ 4.492185, 52.156775 ], [ 4.491702, 52.157091 ], [ 4.491059, 52.157638 ], [ 4.49034, 52.158144 ], [ 4.489599, 52.158756 ], [ 4.48916, 52.159099 ], [ 4.488537, 52.159487 ], [ 4.487647, 52.159836 ], [ 4.486831, 52.160014 ], [ 4.485683, 52.160139 ], [ 4.485093, 52.160218 ], [ 4.484997, 52.160251 ], [ 4.484922, 52.16032 ], [ 4.484876, 52.16041 ], [ 4.484924, 52.160512 ], [ 4.485048, 52.160591 ], [ 4.485115, 52.160688 ], [ 4.485295, 52.160953 ], [ 4.48537, 52.161077 ], [ 4.485442, 52.161346 ], [ 4.485512, 52.16156 ], [ 4.48552, 52.161659 ], [ 4.485488, 52.161708 ], [ 4.485429, 52.161749 ], [ 4.485337, 52.161774 ], [ 4.484932, 52.161863 ], [ 4.48482, 52.161901 ], [ 4.484745, 52.161953 ], [ 4.484707, 52.162016 ], [ 4.484667, 52.162197 ], [ 4.484498, 52.163071 ], [ 4.484425, 52.163446 ], [ 4.484289, 52.163885 ], [ 4.484189, 52.164226 ], [ 4.484061, 52.164622 ], [ 4.483935, 52.164961 ], [ 4.483779, 52.165297 ], [ 4.483666, 52.165484 ], [ 4.483497, 52.165642 ], [ 4.483291, 52.165764 ], [ 4.483178, 52.165817 ], [ 4.483095, 52.165823 ], [ 4.482915, 52.165808 ], [ 4.482765, 52.165754 ], [ 4.482674, 52.165669 ], [ 4.481566, 52.164785 ], [ 4.480563, 52.164069 ], [ 4.480354, 52.164007 ], [ 4.480214, 52.164004 ], [ 4.480094, 52.163974 ], [ 4.48004, 52.163921 ], [ 4.480029, 52.163829 ], [ 4.480112, 52.16374 ], [ 4.480265, 52.16367 ], [ 4.480432, 52.163658 ], [ 4.480601, 52.163704 ], [ 4.480644, 52.16377 ], [ 4.480686, 52.16391 ], [ 4.480657, 52.164007 ], [ 4.480641, 52.164106 ] ] } },
    {
        "type": "Feature",
        "properties": {"line_key": "NZH_LS_LS", "Name": "Breestraat - Hoge Rijndijk"},
        "geometry": {
          "coordinates": [
            [
              4.51321845243433,
              52.15483919877187
            ],
            [
              4.511151892396271,
              52.15509232850437
            ],
            [
              4.5074861236956,
              52.15521754364241
            ],
            [
              4.503824499452207,
              52.155402684642496
            ],
            [
              4.499487011113018,
              52.15539670454302
            ],
            [
              4.496473578697305,
              52.15582635200562
            ],
            [
              4.494825228481545,
              52.15603201234646
            ],
            [
              4.4933722223259736,
              52.15628183602661
            ],
            [
              4.492947,
              52.156413
            ]
          ],
          "type": "LineString"
        }
      }
]
}