{
  "type": "FeatureCollection",
  "features": [
    {
      "type": "Feature",
      "properties": {
        "line_key": "IJSM_LD_LW",
        "Name": "Leidschendam tot Wijkerbrug"
      },
      "geometry": {
        "coordinates": [
          [
            4.394273622132886,
            52.0841210569383
          ],
          [
            4.393893390917015,
            52.08385226259165
          ],
          [
            4.393480373428389,
            52.08348184678235
          ],
          [
            4.3915213310125125,
            52.082226525900694
          ],
          [
            4.390885374668869,
            52.081773025797276
          ],
          [
            4.389732436776768,
            52.08140459280398
          ],
          [
            4.3876637367879425,
            52.080497667863625
          ],
          [
            4.385952506495983,
            52.07952785192791
          ],
          [
            4.3819431727657445,
            52.07793736583878
          ],
          [
            4.379634156136262,
            52.076479587460256
          ],
          [
            4.379158880008788,
            52.07605894848879
          ],
          [
            4.3766663779646535,
            52.074569413580036
          ],
          [
            4.37625349022764,
            52.07429641865869
          ]
        ],
        "type": "LineString"
      }
    }
  ]
}