{
    "type": "FeatureCollection",
    "name": "merged",
    "crs": { "type": "name", "properties": { "name": "urn:ogc:def:crs:OGC:1.3:CRS84" } },
    "features": [
    { "type": "Feature", "properties": { "line_key": "ZVTM_SZ", "Name": "Sas van Gent - Zelzate" }, "geometry": { "type": "LineString", "coordinates": [
          [
            3.808707781862921,
            51.22844938060564
          ],
          [
            3.8087862685179914,
            51.22841851918142
          ],
          [
            3.808802695957553,
            51.22832364874688
          ],
          [
            3.804703015674761,
            51.213612971866894
          ],
          [
            3.804541631545561,
            51.213057056922736
          ],
          [
            3.8046347030017102,
            51.212532332350605
          ],
          [
            3.805239667468271,
            51.21053540916327
          ],
          [
            3.8057980962058764,
            51.20924537989691
          ],
          [
            3.806976017036419,
            51.20671554640549
          ],
          [
            3.8088603351241375,
            51.201317958042125
          ],
          [
            3.809647363419913,
            51.199875342359064
          ],
          [
            3.8099726490404464,
            51.19911826902373
          ],
          [
            3.8101062484923034,
            51.19849221821437
          ],
          [
            3.8101780097416906,
            51.19762966452825
          ],
          [
            3.810113403470865,
            51.19687201759112
          ],
          [
            3.809947273063017,
            51.196235815882176
          ],
          [
            3.8096334711797226,
            51.195402956731414
          ]
        ] } }
    ]
    }
    