{
    "type": "FeatureCollection",
    "name": "merged",
    "crs": { "type": "name", "properties": { "name": "urn:ogc:def:crs:OGC:1.3:CRS84" } },
    "features": [
    { "type": "Feature", "properties": { "line_key": "RTM_MOO", "Name": "Middelharnis - Ooltgensplaat" }, "geometry": { "type": "LineString", "coordinates": [ [ 4.1917922, 51.7728329 ], [ 4.1909902, 51.7723599 ], [ 4.1903588, 51.772075 ], [ 4.1887441, 51.7719256 ], [ 4.1876927, 51.7718194 ], [ 4.1720015, 51.7629835 ], [ 4.1716046, 51.760759 ], [ 4.1711754, 51.7595637 ], [ 4.1701454, 51.7584347 ], [ 4.1694802, 51.7577573 ], [ 4.1675276, 51.7569073 ], [ 4.1649741, 51.7563096 ], [ 4.1613263, 51.7555525 ], [ 4.1601998, 51.7552071 ], [ 4.1595239, 51.7547754 ], [ 4.158966, 51.7541378 ], [ 4.15873, 51.7536596 ], [ 4.1587943, 51.753208 ], [ 4.1591698, 51.7525372 ], [ 4.1674729, 51.7384237 ], [ 4.1685458, 51.7365103 ], [ 4.1724513, 51.7222499 ], [ 4.1781376, 51.7146061 ], [ 4.1861199, 51.7109632 ], [ 4.2080925, 51.6991018 ], [ 4.2161457, 51.6945171 ], [ 4.2174117, 51.6939385 ], [ 4.2181949, 51.693892 ], [ 4.2195575, 51.6939651 ], [ 4.2219178, 51.6943775 ], [ 4.2251669, 51.6948182 ], [ 4.2285786, 51.6954367 ], [ 4.2314861, 51.6956295 ], [ 4.2546282, 51.6932487 ], [ 4.2644129, 51.6925305 ], [ 4.2684899, 51.6926901 ], [ 4.272245, 51.6942197 ], [ 4.2753134, 51.6954832 ], [ 4.2811928, 51.6968797 ], [ 4.2871581, 51.6982496 ], [ 4.2908059, 51.6989013 ], [ 4.2931233, 51.6989146 ], [ 4.2973505, 51.6980235 ], [ 4.3309875, 51.687584 ], [ 4.3339609, 51.6866812 ], [ 4.3357204, 51.6866413 ], [ 4.3367933, 51.686914 ], [ 4.3383705, 51.6877654 ], [ 4.3397759, 51.6884039 ], [ 4.3409454, 51.6885702 ], [ 4.3426084, 51.688231 ], [ 4.3461703, 51.6870471 ], [ 4.3487345, 51.68577 ], [ 4.3507194, 51.6844862 ], [ 4.3516957, 51.6837346 ], [ 4.3529295, 51.6835217 ], [ 4.3535196, 51.6835416 ], [ 4.3596243, 51.6831226 ], [ 4.363551, 51.682923 ], [ 4.3659289, 51.6830452 ] ] } }
    ]
    }
    