{
    "type": "FeatureCollection",
    "name": "merged",
    "crs": { "type": "name", "properties": { "name": "urn:ogc:def:crs:OGC:1.3:CRS84" } },
    "features": [
    { "type": "Feature", "properties": { "line_key": "RTM_RS", "Name": "Rotterdam - Spijkenisse" }, "geometry": { "type": "LineString", "coordinates": [ [ 4.5000869, 51.9113486 ], [ 4.5013422, 51.9111765 ], [ 4.5028442, 51.9102367 ], [ 4.5068997, 51.9071987 ], [ 4.5089973, 51.9051492 ], [ 4.5121301, 51.9017467 ], [ 4.5121516, 51.9012568 ], [ 4.5102633, 51.8994827 ], [ 4.5085038, 51.8987147 ], [ 4.5066584, 51.8983837 ], [ 4.5017017, 51.8982248 ], [ 4.4973673, 51.8978541 ], [ 4.4917239, 51.8966094 ], [ 4.4897283, 51.8962519 ], [ 4.4866599, 51.895815 ], [ 4.4849862, 51.8952191 ], [ 4.4765748, 51.8934182 ], [ 4.4712747, 51.8922529 ], [ 4.4696225, 51.8910346 ], [ 4.4665326, 51.8884786 ], [ 4.4656957, 51.8872205 ], [ 4.465249, 51.8857032 ], [ 4.4648199, 51.8832265 ], [ 4.4643263, 51.8811204 ], [ 4.4637899, 51.8798886 ], [ 4.459331, 51.8757042 ], [ 4.4567775, 51.8726307 ], [ 4.4541811, 51.8700208 ], [ 4.4528507, 51.8692921 ], [ 4.4452762, 51.8685898 ], [ 4.4422936, 51.8677684 ], [ 4.4387101, 51.8660194 ], [ 4.4326811, 51.8624168 ], [ 4.4301813, 51.8609724 ], [ 4.4280356, 51.8603165 ], [ 4.420137, 51.8590272 ], [ 4.4145794, 51.858126 ], [ 4.410481, 51.857967 ], [ 4.4062753, 51.8585766 ], [ 4.4009668, 51.8595863 ], [ 4.3952162, 51.8600368 ], [ 4.3902916, 51.8603814 ], [ 4.3871374, 51.8610175 ], [ 4.3781144, 51.8621637 ], [ 4.3726269, 51.8628021 ], [ 4.3701593, 51.8637429 ], [ 4.3678419, 51.8646109 ], [ 4.3645374, 51.8653264 ], [ 4.3602673, 51.8644121 ], [ 4.3524672, 51.8628524 ], [ 4.3467594, 51.8615935 ], [ 4.3423821, 51.8599901 ], [ 4.3383051, 51.858307 ], [ 4.3331144, 51.8560844 ] ] } }    ]
    }
    