{
    "type": "FeatureCollection",
    "name": "merged",
    "crs": { "type": "name", "properties": { "name": "urn:ogc:def:crs:OGC:1.3:CRS84" } },
    "features": [
    { "type": "Feature", "properties": { "line_key": "SBM_BM_BD", "Name": "Breskens - Draaibrug" }, "geometry": { "type": "LineString", "coordinates": [
      [
        3.5677407297859816,
        51.3961023223099
      ],
      [
        3.566534803084892,
        51.39520474498457
      ],
      [
        3.566328561671213,
        51.39517211984591
      ],
      [
        3.564784527899775,
        51.395201992482356
      ],
      [
        3.5643835578901246,
        51.39512731085438
      ],
      [
        3.5631326264050074,
        51.39512714061539
      ],
      [
        3.5615858504293954,
        51.39549080183929
      ],
      [
        3.560414559926329,
        51.39600831475062
      ],
      [
        3.559605061457063,
        51.39638823206147
      ],
      [
        3.558493564060342,
        51.39677103986787
      ],
      [
        3.5580800870278892,
        51.39677658778342
      ],
      [
        3.557617704110669,
        51.39664621158721
      ],
      [
        3.5538457826677643,
        51.39412451506564
      ],
      [
        3.553160728609271,
        51.39364418075161
      ],
      [
        3.5529962269941393,
        51.39346940911801
      ],
      [
        3.5529117531920065,
        51.39331405599407
      ],
      [
        3.5499705557349728,
        51.38894946323887
      ],
      [
        3.5496382258673407,
        51.38868702583483
      ],
      [
        3.549401140152156,
        51.38804846115315
      ],
      [
        3.549009589881507,
        51.3826662750337
      ],
      [
        3.5483093290895624,
        51.378592317412966
      ],
      [
        3.5460211928290164,
        51.37309685816689
      ],
      [
        3.5459078634270895,
        51.371996615379345
      ],
      [
        3.545940504479887,
        51.37129022278711
      ],
      [
        3.5467505479206523,
        51.36667928859541
      ],
      [
        3.546904109001076,
        51.365487703664996
      ],
      [
        3.5476900543262104,
        51.36383040884064
      ],
      [
        3.549684616865335,
        51.359876228133544
      ],
      [
        3.551655439499825,
        51.35764160073609
      ],
      [
        3.555563326612912,
        51.353663758124156
      ],
      [
        3.5556277569061194,
        51.35355741615672
      ],
      [
        3.5556461655625924,
        51.353436703353594
      ],
      [
        3.555563326612912,
        51.35331599023246
      ],
      [
        3.555337820583617,
        51.35322401811737
      ],
      [
        3.517487151772059,
        51.33800799724136
      ],
      [
        3.4999298756014525,
        51.33099328511739
      ],
      [
        3.495375394852914,
        51.329195945157096
      ],
      [
        3.4933269681053787,
        51.32780704329781
      ],
      [
        3.4910443540180154,
        51.32735320615268
      ],
      [
        3.4879657188447197,
        51.3269269848266
      ],
      [
        3.487652324844589,
        51.326834828343465
      ],
      [
        3.4874403230222697,
        51.32665627462987
      ],
      [
        3.4873573657866643,
        51.326420121876765
      ],
      [
        3.486541826730871,
        51.32316670218222
      ],
      [
        3.4864142020541067,
        51.32282592480033
      ],
      [
        3.48618795831041,
        51.322546775484284
      ],
      [
        3.4859617145667414,
        51.32232563001466
      ],
      [
        3.4856136472691617,
        51.32215161315824
      ],
      [
        3.4701453589388507,
        51.315421033704155
      ],
      [
        3.452443136140971,
        51.307908609686095
      ],
      [
        3.4347910074205856,
        51.30083863002543
      ],
      [
        3.4323028821371224,
        51.29989888038325
      ],
      [
        3.4311206751686854,
        51.299583703952955
      ],
      [
        3.4305267524947,
        51.299361014844976
      ]
        ] } }
    ]
    }
 