{
  "type": "FeatureCollection",
  "name": "merged",
  "crs": {
    "type": "name",
    "properties": {"name": "urn:ogc:def:crs:OGC:1.3:CRS84"}
  },
  "features": [
    {
      "type": "Feature",
      "properties": {
        "line_key": "NZH_LS_VD",
        "Name": "Voorburg-Leidschendam",
        "description": "De NZH-tramlijn had op het grootste deel van zijn traject door Voorburg een vrije baan in de middenberm of langs de zijkant van de weg."
      },
      "geometry": {
        "type": "LineString",
        "coordinates": [
          [4.363305, 52.068081],
          [4.363509, 52.068147],
          [4.364592, 52.068609],
          [4.364823, 52.068701],
          [4.36493, 52.068817],
          [4.365, 52.069001],
          [4.365424, 52.07032],
          [4.365596, 52.070769],
          [4.365735, 52.071013],
          [4.365907, 52.07124],
          [4.366105, 52.071392],
          [4.366373, 52.07157],
          [4.366937, 52.071837],
          [4.367441, 52.072065],
          [4.367859, 52.072256],
          [4.368959, 52.07276],
          [4.369458, 52.073057],
          [4.369812, 52.073265],
          [4.370177, 52.073529],
          [4.370863, 52.074053],
          [4.371121, 52.074241],
          [4.371695, 52.074663],
          [4.372312, 52.075022],
          [4.373385, 52.075678],
          [4.373975, 52.075982],
          [4.374592, 52.076265],
          [4.375219, 52.076456],
          [4.375606, 52.076562],
          [4.376158, 52.076657],
          [4.376909, 52.07675],
          [4.3778, 52.076793],
          [4.378685, 52.076849],
          [4.379425, 52.076885],
          [4.379865, 52.076925],
          [4.380278, 52.077007],
          [4.380718, 52.077185],
          [4.381067, 52.077409],
          [4.381421, 52.077614]
        ]
      }
    },
    { "type": "Feature", "properties": { "line_key": "NZH_LS_VD", "Name": "Vronesteyn", "description": "Bij de woonwijk Park Vronesteyn had de een tusseneindpunt. Hier eindigde de lokaaldienst (Scheveningen -) Malieveld - Voorburg." }, "geometry": { "type": "LineString", "coordinates": [ [ 4.380702, 52.077175 ], [ 4.380535, 52.077027 ], [ 4.380501, 52.076901 ], [ 4.380474, 52.076773 ], [ 4.380503, 52.076621 ], [ 4.380546, 52.076531 ], [ 4.380656, 52.076412 ], [ 4.380734, 52.07632 ], [ 4.38045, 52.076654 ], [ 4.380326, 52.076758 ], [ 4.380168, 52.076839 ], [ 4.380026, 52.076877 ], [ 4.379911, 52.076893 ], [ 4.379709, 52.076905 ] ] } },
    {
      "type": "Feature",
      "properties": {
        "line_key": "NZH_LS_VD",
        "Name": "Schenk - Voorburg 1961",
        "description": "Tracé van de Blauwe Tram (NZH) tussen Schenkkade en Voorburg Parkweg. Een deel van de route is inmiddels overbouwd door de Utrechtsebaan."
      },
      "geometry": {
        "type": "LineString",
        "coordinates": [
          [4.32709, 52.07973],
          [4.328721, 52.078326],
          [4.329633, 52.077607],
          [4.330609, 52.077066],
          [4.331317, 52.07671],
          [4.332025, 52.076519],
          [4.332948, 52.07642],
          [4.333495, 52.076506],
          [4.334214, 52.076868],
          [4.335008, 52.077211],
          [4.336832, 52.077864],
          [4.3371, 52.07791],
          [4.337389, 52.077904],
          [4.337647, 52.077792],
          [4.338945, 52.076789],
          [4.339331, 52.076598],
          [4.339675, 52.07642],
          [4.343687, 52.075049],
          [4.344385, 52.074844],
          [4.344878, 52.074739],
          [4.345318, 52.074287],
          [4.345551, 52.074059],
          [4.345801, 52.073819],
          [4.34638, 52.073354],
          [4.346949, 52.072826],
          [4.347636, 52.072365],
          [4.348354, 52.072035],
          [4.349384, 52.071633],
          [4.352249, 52.07061],
          [4.352571, 52.070478],
          [4.35315, 52.070103],
          [4.353805, 52.069601],
          [4.354373, 52.069219],
          [4.355757, 52.068216],
          [4.356138, 52.068042],
          [4.356605, 52.067953],
          [4.35723, 52.067957],
          [4.357823, 52.068051],
          [4.358198, 52.067953],
          [4.358641, 52.067824],
          [4.358981, 52.067882],
          [4.3593, 52.067969],
          [4.359716, 52.067972],
          [4.360993, 52.067953],
          [4.362688, 52.067979],
          [4.363267, 52.068065]
        ]
      }
    },
    {
      "type": "Feature",
      "properties": {
        "line_key": "NZH_LS_VD",
        "Name": "NZH-remise Voorburg",
        "description": "Vanaf de Parkweg takten twee sporen af naar de NZH-remise die hier achter de huizen lag."
      },
      "geometry": {
        "type": "LineString",
        "coordinates": [
          [4.360709, 52.067948],
          [4.360805, 52.067915],
          [4.360867, 52.067849],
          [4.361025, 52.067676],
          [4.361205, 52.067506],
          [4.361374, 52.067344]
        ]
      }
    },
    {
      "type": "Feature",
      "properties": {
        "line_key": "NZH_LS_VD",
        "Name": "Remise Voorburg",
        "description": "Spoor vanaf de Parkweg naar de noordelijke sporenbundel van de remise."
      },
      "geometry": {
        "type": "LineString",
        "coordinates": [
          [4.361224, 52.067948],
          [4.361344, 52.067928],
          [4.361481, 52.06785],
          [4.361631, 52.067707],
          [4.361755, 52.067578],
          [4.361875, 52.06746]
        ]
      }
    }
  ]
}