{
  "type": "FeatureCollection",
  "features": [
    {
      "type": "Feature",
      "properties": {
        "line_key": "HTM_DD_RV",
        "Name": "Rijswijkseplein tot Verffabriek"
      },
      "geometry": {
        "coordinates": [
          [4.323747160426706, 52.07226489805507],
          [4.325019451036098, 52.07115537562251],
          [4.328788624103311, 52.06727701138891],
          [4.329963076580498, 52.065060652011255],
          [4.341580620800727, 52.05291664311491],
          [4.343498386375671, 52.051614241124696],
          [4.343330471550871, 52.05084814980057],
          [4.343290095850165, 52.0504331402185],
          [4.343617520568671, 52.0476881779243],
          [4.344338799687023, 52.04388202574819],
          [4.344785715892698, 52.040731375214534],
          [4.345729605931808, 52.03537749489158],
          [4.345921152936683, 52.03369635218266],
          [4.346601230573384, 52.03026737388751]
        ],
        "type": "LineString"
      }
    }
  ]
}