{
    "type": "FeatureCollection",
    "name": "merged",
    "crs": { "type": "name", "properties": { "name": "urn:ogc:def:crs:OGC:1.3:CRS84" } },
    "features": [
    { "type": "Feature", "properties": { "line_key": "SHW_HW_WP", "Name": "Hulst - Walsoorden" }, "geometry": { "type": "LineString", "coordinates": [
      [
        4.021568334058173,
        51.37361453521066
      ],
          [
            4.021342276283946,
            51.37682767964358
          ],
          [
            4.021317592321537,
            51.378919073510446
          ],
          [
            4.019976568709637,
            51.383754737860585
          ],
          [
            4.0198666960492915,
            51.38447038191234
          ],
          [
            4.019777379799734,
            51.386244061097756
          ],
          [
            4.019369756225672,
            51.38814508393355
          ],
          [
            4.018809204568811,
            51.3897314615171
          ],
          [
            4.017674294615688,
            51.39254270945895
          ],
          [
            4.017131261556415,
            51.3939702694357
          ],
          [
            4.0157872878924366,
            51.39576971762955
          ],
          [
            4.015344675328407,
            51.39671355436451
          ],
          [
            4.0149038545589235,
            51.397436781423636
          ],
          [
            4.014780062119087,
            51.397992318240824
          ],
          [
            4.014826752668711,
            51.39822717735649
          ],
          [
            4.015014175185144,
            51.39845755345311
          ],
          [
            4.015403012937213,
            51.398743853019226
          ],
          [
            4.017194196593977,
            51.400001328374344
          ]
        ] } }
    ]
    }
    