{
    "type": "FeatureCollection",
    "name": "merged",
    "crs": { "type": "name", "properties": { "name": "urn:ogc:def:crs:OGC:1.3:CRS84" } },
    "features": [
    { "type": "Feature", "properties": { "line_key":"RTM_BZ", "Name": "Barendrecht - Zwijndrecht" }, "geometry": { "type": "LineString", "coordinates": [ [ 4.5288564, 51.8591758 ], [ 4.5290495, 51.8581488 ], [ 4.5288136, 51.8497259 ], [ 4.5285849, 51.8474672 ], [ 4.5283971, 51.8469137 ], [ 4.5286707, 51.8466055 ], [ 4.5290784, 51.8464498 ], [ 4.5296792, 51.8464067 ], [ 4.5307414, 51.8465823 ], [ 4.5321375, 51.8466829 ], [ 4.5329582, 51.8466763 ], [ 4.535399, 51.846262 ], [ 4.5404362, 51.8453208 ], [ 4.5434343, 51.8446855 ], [ 4.5456766, 51.84391 ], [ 4.5473611, 51.8436316 ], [ 4.5496141, 51.8439896 ], [ 4.5517706, 51.8443939 ], [ 4.5539915, 51.8448181 ], [ 4.5561051, 51.8453815 ], [ 4.5573603, 51.8463558 ], [ 4.5582507, 51.8478874 ], [ 4.559624, 51.849087 ], [ 4.5619629, 51.8508035 ], [ 4.563422, 51.8520494 ], [ 4.5660828, 51.853335 ], [ 4.571533, 51.8559791 ], [ 4.576361, 51.8568008 ], [ 4.5785711, 51.8569466 ], [ 4.5807169, 51.8565092 ], [ 4.5898364, 51.8529971 ], [ 4.5947931, 51.8511282 ], [ 4.5960806, 51.8504125 ], [ 4.598162, 51.8482519 ], [ 4.6027714, 51.846862 ], [ 4.6034258, 51.8463516 ], [ 4.6035653, 51.8457352 ], [ 4.6031791, 51.8448471 ], [ 4.6004734, 51.8393402 ], [ 4.6004734, 51.8387171 ], [ 4.6012245, 51.8382266 ], [ 4.6031771, 51.8375504 ], [ 4.6328101, 51.8268892 ], [ 4.6507488, 51.8205497 ], [ 4.655169, 51.8190111 ], [ 4.6573363, 51.8176383 ] ] } }
    ]
    }
    