{
  "type": "FeatureCollection",
  "features": [
    {
      "type": "Feature",
      "properties": {
        "line_key": "IJSM_LD_WV",
        "Name": "Wijkerbrug tot Voorburg"
      },
      "geometry": {
        "coordinates": [
          [
            4.37625349022764,
            52.07429641865869
          ],
          [
            4.375956284308074,
            52.074199074816846
          ],
          [
            4.3756065399796,
            52.074357819410125
          ],
          [
            4.37401215873615,
            52.07558082664943
          ],
          [
            4.373587084859764,
            52.075676731940376
          ],
          [
            4.373156630301764,
            52.07559405497773
          ],
          [
            4.3724679030079585,
            52.075134368272785
          ],
          [
            4.36949010162769,
            52.07305988465899
          ],
          [
            4.366066101387901,
            52.07127842307813
          ],
          [
            4.365442052979006,
            52.070322363230105
          ],
          [
            4.364873623346881,
            52.06876721472375
          ],
          [
            4.363266476783281,
            52.068015480714166
          ],
          [
            4.362027563363682,
            52.067958361292995
          ],
          [
            4.35944649373991,
            52.0679329748601
          ]
        ],
        "type": "LineString"
      }
    }
  ]
}