{
  "type": "FeatureCollection",
  "name": "merged",
  "crs": {
    "type": "name",
    "properties": {"name": "urn:ogc:def:crs:OGC:1.3:CRS84"}
  },
  "features": [
    {
      "type": "Feature",
      "properties": {
        "line_key": "WSM_PH_PG",
        "Name": "Poeldijk - Hoek van Holland"
      },
      "geometry": {
        "type": "LineString",
        "coordinates": [
          [4.1575727, 52.0067085],
          [4.1580018, 52.0058235],
          [4.1577872, 52.0050705],
          [4.1571435, 52.0045422],
          [4.1561135, 52.0042252],
          [4.1529163, 52.0036968],
          [4.149054, 52.0028249],
          [4.1468438, 52.0020984],
          [4.1443333, 52.0011473],
          [4.142681, 52.0003943],
          [4.1416421, 52.0000127],
          [4.1413363, 51.9997056],
          [4.1412022, 51.9994347],
          [4.1369214, 51.9963433],
          [4.1341138, 51.9942606],
          [4.127698, 51.987905],
          [4.1259599, 51.9863192],
          [4.1227949, 51.9833158],
          [4.1220331, 51.9826253],
          [4.1215128, 51.9819017],
          [4.1215289, 51.9813995],
          [4.1217274, 51.9811153],
          [4.1253746, 51.9792861],
          [4.1279281, 51.9783741],
          [4.1319083, 51.9765899],
          [4.1332279, 51.9759951]
        ]
      }
    }
  ]
}