{
    "type": "FeatureCollection",
    "name": "merged",
    "crs": { "type": "name", "properties": { "name": "urn:ogc:def:crs:OGC:1.3:CRS84" } },
    "features": [
    { "type": "Feature", "properties": { "line_key":"HSM_RN", "Name": "Rijnsburg - Noordwijk" }, "geometry": { "type": "LineString", "coordinates": [ [ 4.4462005, 52.1880012 ], [ 4.4460336, 52.1884763 ], [ 4.4480593, 52.1901702 ], [ 4.4473082, 52.1919591 ], [ 4.4462783, 52.1934323 ], [ 4.445141, 52.1937612 ], [ 4.444626, 52.1943005 ], [ 4.4449908, 52.1957473 ], [ 4.4455563, 52.1977018 ], [ 4.4459533, 52.1991156 ], [ 4.4461893, 52.2009371 ], [ 4.4460391, 52.2020418 ], [ 4.4456314, 52.2026796 ], [ 4.4436573, 52.2047574 ], [ 4.4418227, 52.2063486 ], [ 4.4391512, 52.2081829 ], [ 4.4381431, 52.2090397 ], [ 4.4375637, 52.2101441 ], [ 4.4375026, 52.2107351 ], [ 4.4377279, 52.211948 ], [ 4.4383556, 52.2140582 ], [ 4.4386989, 52.215695 ], [ 4.4388209, 52.2185541 ], [ 4.4394109, 52.2199147 ], [ 4.4405589, 52.2216959 ], [ 4.4417069, 52.2227475 ], [ 4.4426081, 52.2241146 ], [ 4.4434128, 52.2259087 ], [ 4.4443033, 52.2274991 ], [ 4.445741, 52.2293326 ], [ 4.4457463, 52.2305286 ], [ 4.4461594, 52.2319217 ], [ 4.446492, 52.2326773 ], [ 4.4471477, 52.2332352 ], [ 4.4485639, 52.2337609 ], [ 4.4486069, 52.2341133 ], [ 4.4481563, 52.2346159 ], [ 4.447518, 52.2350003 ], [ 4.4461876, 52.2356837 ], [ 4.4437199, 52.2367481 ], [ 4.4427973, 52.2374379 ], [ 4.4420999, 52.2383578 ], [ 4.4415205, 52.2398689 ], [ 4.4408768, 52.2412879 ], [ 4.4402438, 52.2419909 ], [ 4.4390958, 52.2425099 ], [ 4.4375401, 52.2428712 ], [ 4.4366604, 52.2429697 ], [ 4.4344629, 52.242491 ], [ 4.4323815, 52.2414924 ], [ 4.4312443, 52.2407434 ], [ 4.4298066, 52.2405595 ], [ 4.4282616, 52.240888 ], [ 4.4271888, 52.2408354 ], [ 4.4265665, 52.2401522 ], [ 4.4253434, 52.2387725 ] ] } }
    ]
    }
    