{
  "type": "FeatureCollection",
  "name": "merged",
  "crs": {
    "type": "name",
    "properties": {"name": "urn:ogc:def:crs:OGC:1.3:CRS84"}
  },
  "features": [
    { "type": "Feature", "properties": { "line_key": "WSM_PM_NM", "Name": "Maassluis - Den Haag" }, "geometry": { "type": "LineString", "coordinates": [ [ 4.2751849, 51.9499306 ], [ 4.2754375, 51.9495884 ], [ 4.2755126, 51.9491089 ], [ 4.2752772, 51.9483909 ], [ 4.2755749, 51.9487282 ], [ 4.2760845, 51.9490936 ], [ 4.2769424, 51.9495369 ], [ 4.2763758, 51.9495752 ], [ 4.2756247, 51.9497256 ], [ 4.2751849, 51.9499306 ], [ 4.2741871, 51.950701 ], [ 4.2684793, 51.9555808 ], [ 4.2626858, 51.9612006 ], [ 4.2522474, 51.9720034 ], [ 4.2516314, 51.972346 ], [ 4.2502366, 51.9724715 ], [ 4.2444108, 51.9728945 ], [ 4.2345939, 51.9729313 ], [ 4.2231569, 51.9727991 ], [ 4.219316, 51.9733807 ], [ 4.2175779, 51.9745836 ], [ 4.2163334, 51.9761698 ], [ 4.2122564, 51.9813111 ], [ 4.2097138, 51.9847005 ], [ 4.2089413, 51.9856387 ], [ 4.2080079, 51.9869139 ], [ 4.2068385, 51.9885988 ], [ 4.206066, 51.9896955 ], [ 4.2043494, 51.9911754 ], [ 4.2025261, 51.9924307 ], [ 4.2022042, 51.9932896 ], [ 4.2029767, 51.9941946 ], [ 4.204189, 51.9947958 ], [ 4.2066567, 51.9962293 ]] } }

  ]
}