{
    "type": "FeatureCollection",
    "name": "merged",
    "crs": { "type": "name", "properties": { "name": "urn:ogc:def:crs:OGC:1.3:CRS84" } },
    "features": [
        { "type": "Feature", "properties": { "line_key": "RTM_KG_KO", "Name": "Krooswijk - Goudswaard" }, "geometry": { "type": "LineString", "coordinates": [ [ 4.4430491, 51.8197936 ], [ 4.4395345, 51.8204738 ], [ 4.4293743, 51.8230269 ], [ 4.4198257, 51.8250561 ], [ 4.4116503, 51.8265547 ] ] } },
        { "type": "Feature", "properties": { "line_key": "RTM_KG_OG", "Name": "Krooswijk - Goudswaard" }, "geometry": { "type": "LineString", "coordinates": [ [ 4.4116503, 51.8265547 ], [ 4.4069584, 51.8270495 ], [ 4.4064327, 51.82695 ], [ 4.3963154, 51.8172945 ], [ 4.393365, 51.8144154 ], [ 4.392728, 51.8137519 ], [ 4.3900244, 51.8079014 ], [ 4.3897239, 51.8067605 ], [ 4.3892036, 51.8063591 ], [ 4.3881039, 51.8063691 ], [ 4.3822137, 51.8069992 ], [ 4.3687789, 51.8083235 ], [ 4.3557272, 51.8091406 ], [ 4.3522178, 51.8091348 ], [ 4.347694, 51.8091005 ], [ 4.3450333, 51.8095185 ], [ 4.3441642, 51.810268 ], [ 4.343145, 51.8114023 ], [ 4.3426407, 51.811913 ], [ 4.3420721, 51.8120391 ], [ 4.3370939, 51.8104803 ], [ 4.3347336, 51.8098369 ], [ 4.3336203, 51.8093878 ], [ 4.3327566, 51.8087178 ], [ 4.3324518, 51.8075149 ], [ 4.331733, 51.8029175 ], [ 4.3313039, 51.7995206 ], [ 4.3308962, 51.7987576 ], [ 4.3291688, 51.7981869 ], [ 4.3214762, 51.7956589 ], [ 4.319942, 51.7949954 ], [ 4.3186009, 51.7940597 ], [ 4.3162835, 51.7923742 ], [ 4.3133974, 51.791047 ], [ 4.3107474, 51.7909342 ], [ 4.3045252, 51.7906772 ], [ 4.302594, 51.7908762 ], [ 4.3009846, 51.7914469 ], [ 4.2997186, 51.792522 ], [ 4.2972725, 51.7954284 ], [ 4.2960923, 51.7961848 ], [ 4.2945473, 51.7965166 ], [ 4.2923372, 51.7964635 ], [ 4.2901271, 51.7961583 ], [ 4.2875704, 51.7955725 ], [ 4.2855963, 51.7950018 ], [ 4.2846843, 51.7947099 ], [ 4.2835471, 51.794617 ], [ 4.2822811, 51.7947364 ], [ 4.2802855, 51.7951478 ], [ 4.2772814, 51.795672 ] ] } }
    ]
    }
    