{
    "operators": {
        "RTM": "#9e0142",
        "HTM": "#d53e4f",
        "HTM01": "green",
        "HTM02": "orange",
        "HTM03": "purple",
        "HTM04": "brown",
        "IJSM": "#f46d43",
        "WSM": "#fdae61",
        "HSM": "#fee08b",
        "NZH": "#e6f598",
        "RSTM": "#abdda4",
        "SS": "#66c2a5",
        "TOGB": "#5e4fa2",
        "SBM": "#3288bd",
        "SHW": "#b3de69",
        "IJzSM": "#fdae61",
        "ZVTM": "#fee08b"
    }
}