{
    "TOGB": {
        "name": "Tramlijn Gouda - Bodegraven",
        "operator": "Tramweg Onderneming Gouda-Bodegraven",
        "url": "https://nl.wikipedia.org/wiki/Tramlijn_Gouda_-_Bodegraven",
        "description": "De tramlijn Gouda - Bodegraven is een voormalige tramlijn tussen deze plaatsen. Op deze tramlijn hebben 25 jaar lang trams gereden, namelijk van 1882 tot in 1917.",
        "length": "8,8 km",
        "track_gauge": "smalspoor 750 mm",
        "opened": "18 mei 1882",
        "closed": "16 oktober 1917"
    },
    "GO_IJSM": {
        "name": "Tramlijn Gouda - Oudewater",
        "operator": "IJssel Stoomtramweg-Maatschappij",
        "url": "https://nl.wikipedia.org/wiki/Tramlijn_Gouda_-_Oudewater",
        "description": "De tramlijn Gouda - Oudewater is een voormalige tramlijn tussen deze plaatsen. Op deze tramlijn hebben 26 jaar lang trams gereden, namelijk van 1883 tot in 1909.",
        "length": "12,5 km",
        "track_gauge": "kaapspoor 1067 mm",
        "opened": "26 december 1883",
        "closed": "1 januari 1909"
    },
    "GS_SS": {
        "name": "Tramlijn Gouda - Schoonhoven",
        "operator": "Staatsspoorwegen",
        "url": "https://nl.wikipedia.org/wiki/Tramlijn_Gouda_-_Schoonhoven",
        "description": "De tramlijn Gouda - Schoonhoven is een voormalige tramlijn tussen deze plaatsen. Op deze tramlijn hebben 28 jaar lang trams gereden, namelijk van 1914 tot in 1942.",
        "length": "16.8 km",
        "track_gauge": "normaalspoor 1435 mm",
        "opened": "14 november 1914",
        "closed": "23 augustus 1942"
    }
}