line_key,Lijn,Segment,Processed,Operator,Track Gauge,Length,From,Until,Opmerking
RTM_BZ,Barendrecht - Zwijndrecht,Barendrecht - Zwijndrecht,TRUE,RTM,kaapspoor,,1 October 1904,10 April 1941,
HTM_DL_DJ,Den Haag - Leiden Haarlemmerstraat,Dierentuin - J. Israëlslaan,TRUE,HTM,normaalspoor,23,4 August 1923,9 November 1961,De Gele Tram
HTM_DL_JD,Den Haag - Leiden Haarlemmerstraat,J. Israëlslaan - Den Deijl,TRUE,HTM,normaalspoor,23,2 March 1923,9 November 1961,De Gele Tram
HTM_DL_DH,Den Haag - Leiden Haarlemmerstraat,Den Deijl - Haagsche Schouw,TRUE,HTM,normaalspoor,23,1 August 1923,9 November 1961,De Gele Tram
HTM_DL_HP,Den Haag - Leiden Haarlemmerstraat,Haagsche Schouw - Posthof,TRUE,HTM,normaalspoor,23,16 May 1925,9 November 1961,De Gele Tram
HTM_DL_PH,Den Haag - Leiden Haarlemmerstraat,Posthof - Haarlemmerstraat,TRUE,HTM,normaalspoor,23,4 July 1925,9 November 1961,De Gele Tram
HTM_DD_HR,Den Haag Huygensplein - Delft Rotterdammerpoort,Den Haag Huygensplein - Rijswijkseplein,FALSE,HTM,normaalspoor,,31 July 1887,1 January 1924,
HTM_DD_RV,Den Haag Huygensplein - Delft Rotterdammerpoort,Rijswijkseplein -Delft verffabriek,FALSE,HTM,normaalspoor,,31 July 1887,1 January 1924,
HTM_DD_VR,Den Haag Huygensplein - Delft Rotterdammerpoort,Delft Verffabriek - Delft Rotterdammerpoort,FALSE,HTM,normaalspoor,,31 July 1887,1 January 1924,
TOGB,Gouda - Bodegraven,Gouda - Bodegraven,TRUE,TOGB,smalspoor,8.8,18 May 1882,16 October 1917,
IJSM_GO,Gouda - Oudewater,Gouda - Oudewater,TRUE,IJSM,kaapspoor,12,26 December 1883,1 January 1907,
SS_GS,Gouda - Schoonhoven,Gouda - Schoonhoven,TRUE,SS,normaalspoor,16.8,14 November 1914,23 August 1942,
NZH_HL_LH,Haarlem - Leiden,Leiden - Hillegom,TRUE,NZH,normaalspoor,30,16 May 1881,2 January 1949,
NZH_HL_HH,Haarlem - Leiden,Hillegom - Haarlem,FALSE,NZH,normaalspoor,30,29 June 1881,2 January 1949,
RSTM_LK,Leiden - Katwijk,Leiden - Katwijk,TRUE,RSTM,normaalspoor,9,4 June 1881,7 October 1960,
HSM_RN,Rijnsburg - Noordwijk,Rijnsburg - Noordwijk,TRUE,HSM,normaalspoor,8.5,2 June 1885,7 October 1960,
WSM_MD,Maaslandse Dam - Delft,Maaslandse Dam - Delft,TRUE,WSM,normaalspoor,,1 October 1912,1 January 1968,
WSM_MM,Maaslandse Dam - Maassluis,Maaslandse Dam - Maassluis,TRUE,WSM,normaalspoor,,1 January 1912,1 January 1934,
WSM_PH_PG,Poeldijk - Hoek van Holland,Poeldijk - 's-Gravenzande,TRUE,WSM,normaalspoor,,1 January 1883,1 January 1968,
WSM_PH_GH,Poeldijk - Hoek van Holland,s-Gravenzande - Hoek van Holland,TRUE,WSM,normaalspoor,,1 January 1905,1 January 1934,
WSM_PM_PN,Poeldijk - Maaslandse Dam,Poeldijk - Naaldwijk,TRUE,WSM,normaalspoor,,1 January 1883,1 January 1968,
WSM_PM_NM,Poeldijk - Maaslandse Dam,Naaldwijk - Maaslandse Dam,TRUE,WSM,normaalspoor,,1 January 1907,1 January 1968,
WSM_LK,Loosduinen - Kijkduin,Loosduinen - Kijkduin,TRUE,WSM,normaalspoor,,1 January 1888,1 January 1928,
WSM_LP,Loosduinen - Poeldijk,Loosduinen - Poeldijk,TRUE,WSM,normaalspoor,,1 January 1883,1 January 1968,
WSM_DL,Den Haag - Loosduinen,Den Haag - Loosduinen,TRUE,WSM,normaalspoor,,1 January 1882,1 January 1932,
RTM_RS,Rotterdam - Spijkenisse,Rotterdam - Spijkenisse,TRUE,RTM,kaapspoor,,1 January 1904,1 January 1965,
RTM_RZ,Rotterdam - Zuid-Beijerland,Rotterdam - Zuid-Beijerland,TRUE,RTM,kaapspoor,,1 January 1898,1 January 1957,
RTM_SH,Spijkenisse - Hellevoetsluis,Spijkenisse - Hellevoetsluis,TRUE,RTM,kaapspoor,17,1 January 1905,1 January 1966,
RTM_SO,Spijkenisse - Oostvoorne,Spijkenisse - Oostvoorne,TRUE,RTM,kaapspoor,,1 January 1906,1 January 1965,
RTM_MOO,Middelharnis - Ooltgensplaat,Middelharnis - Ooltgensplaat,TRUE,RTM,kaapspoor,22.9,1 January 1909,1 January 1957,
RTM_MOU,Middelharnis - Ouddorp,Middelharnis - Ouddorp,TRUE,RTM,kaapspoor,23.4,1 January 1909,1 January 1957,
RTM_KG_KO,Krooswijk - Goudswaard,Krooswijk - Oud-Beijerland,TRUE,RTM,kaapspoor,,2 May 1898,5 November 1956,
RTM_KG_OG,Krooswijk - Goudswaard,Oud-Beijerland - Goudswaard,TRUE,RTM,kaapspoor,,1 May 1903,5 November 1956,
RTM_BS,Blaakschedijk - Strijen,Blaakschedijk - Strijen,TRUE,RTM,kaapspoor,,15 July 1904,5 November 1956,
RTM_AJ,Anna Jacobapolder - Steenbergen,Anna Jacobapolder - Steenbergen,TRUE,RTM,kaapspoor,,30 April 1900,1 February 1953,
IJSM_LD_LL,Leiden Noordeinde - Den Haag,Leiden Noordeinde - Leiden Haagweg,FALSE,IJSM,kaapspoor,,1 January 1902,1 January 1924,
IJSM_LD_LV,Leiden Noordeinde - Den Haag,Leiden Haagweg - Voorschoten,FALSE,IJSM,kaapspoor,,7 December 1882,1 January 1924,
IJSM_LD_VW,Leiden Noordeinde - Den Haag,Voorschoten - Wassenaar,FALSE,IJSM,kaapspoor,,1 June 1883,1 January 1893,
IJSM_LD_VL,Leiden Noordeinde - Den Haag,Voorschoten - Leidschendam,FALSE,IJSM,kaapspoor,,10 August 1883,1 January 1924,
IJSM_LD_LW,Leiden Noordeinde - Den Haag,Leidschendam - Wijkerbrug,FALSE,IJSM,kaapspoor,,14 June 1884,1 January 1924,
IJSM_LD_WV,Leiden Noordeinde - Den Haag,Wijkerbrug - Voorburg,FALSE,IJSM,kaapspoor,,16 July 1884,1 January 1924,
IJSM_LD_VD,Leiden Noordeinde - Den Haag,Voorburg - Den Haag,FALSE,IJSM,kaapspoor,,20 June 1885,1 January 1924,
NZH_LS_LV,Leiden - Scheveningen,Leiden - Voorburg Viaduct,FALSE,NZH,normaalspoor,23.1,25 January 1924,9 November 1961,
NZH_LS_VD,Leiden - Scheveningen,Voorburg Viaduct - Den Haag NRS,FALSE,NZH,normaalspoor,23.1,12 April 1924,9 November 1961,
NZH_LS_DM,Leiden - Scheveningen,Den Haag NRS - Malieveld,FALSE,NZH,normaalspoor,23.1,1 July 1879,9 November 1961,
NZH_LS_MS,Leiden - Scheveningen,Malieveld - Scheveningen,FALSE,NZH,normaalspoor,23.1,1 July 1879,11 May 1958,
NZH_LS_LS,Leiden Stadstram,Breestraat - Hoge Rijndijk,FALSE,NZH,normaalspoor,,1 January 1919,9 November 1961,
SBM_DS,Draaibrug - Sluis,Draaibrug - Sluis,TRUE,SBM,meterspoor,,1 January 1887,1 September 1949,
SBM_BM_BD,Breskens - Maldegem,Breskens - Draaibrug,TRUE,SBM,meterspoor,,1 January 1887,1 September 1949,
SBM_BM_DM,Breskens - Maldegem,Draaibrug - Maldegem,TRUE,SBM,meterspoor,,1 January 1887,1 September 1949,
SBM_OC,Oostburg - Cadzand,Oostburg - Cadzand,TRUE,SBM,meterspoor,,1 January 1912,1 September 1949,
SBM_CH,Cadzand - Cadzand Haven,Cadzand - Cadzand Haven,TRUE,SBM,meterspoor,,1 January 1929,1 September 1949,
SBM_BS_BC,Breskens - Sluis,Breskens - Cadzand,TRUE,SBM,meterspoor,,1 January 1925,1 September 1949,
SBM_BS_CS,Breskens - Sluis,Cadzand - Sluis,TRUE,SBM,meterspoor,,1 January 1926,1 September 1949,
SHW_HW_HW,Hulst - Walsoorden,Hulst - Walsoorden,TRUE,SHW,meterspoor,,15 December 1902,16 March 1949,
SHW_HW_WW,Hulst - Walsoorden,Walsoorden - Walsoorden veerhaven,TRUE,SHW,meterspoor,,1 January 1903,16 March 1949,
SHW_HW_WP,Hulst - Walsoorden,Walsoorden - Perkpolder,TRUE,SHW,meterspoor,,1 January 1940,16 March 1949,
IJZSM_SV,Schoondijke - Veldzicht,Schoondijke - Veldzicht,TRUE,IJzSM,meterspoor,,1 June 1891,1 September 1949,
ZVTM_IJD_IJS,IJzendijke - Drieschouwen,IJzendijke - Sas van Gent,TRUE,ZVTM,meterspoor,,1 January 1914,1 September 1949,
ZVTM_IJD_SD,IJzendijke - Drieschouwen,Sas van Gent - Drieschouwen,TRUE,ZVTM,meterspoor,,1 January 1915,1 September 1949,
ZVTM_SZ,Sas van Gent - Zelzate,Sas van Gent - Zelzate,TRUE,ZVTM,meterspoor,,1 January 1915,1 September 1949,
ZVTM_DM,Drieschouwen - Moerbeke,Drieschouwen - Moerbeke,TRUE,ZVTM,meterspoor,,9 November 1915,30 December 1949,